{
    "response": {
        "status": "ok",
        "userTier": "developer",
        "total": 1888,
        "startIndex": 1,
        "pageSize": 10,
        "currentPage": 1,
        "pages": 189,
        "orderBy": "newest",
        "results": [
            {
                "id": "thefilter-us/2026/feb/17/easy-diy-repairs",
                "type": "article",
                "sectionId": "thefilter-us",
                "sectionName": "The Filter US",
                "webPublicationDate": "2026-02-17T20:15:48Z",
                "webTitle": "Don’t toss it, fix it: nine easy DIY remedies for stuck zippers, wobbly chairs and more",
                "webUrl": "https://www.theguardian.com/thefilter-us/2026/feb/17/easy-diy-repairs",
                "apiUrl": "https://content.guardianapis.com/thefilter-us/2026/feb/17/easy-diy-repairs",
                "isHosted": false,
                "pillarId": "pillar/lifestyle",
                "pillarName": "Lifestyle"
            },
            {
                "id": "artanddesign/2026/feb/17/shigeru-ban-architect-cathedrals-quake-shelters-beer-crates-paper",
                "type": "article",
                "sectionId": "artanddesign",
                "sectionName": "Art and design",
                "webPublicationDate": "2026-02-17T16:16:31Z",
                "webTitle": "Cardboard crazy! Scavenger genius Shigeru Ban on building cathedrals and quake shelters with paper ",
                "webUrl": "https://www.theguardian.com/artanddesign/2026/feb/17/shigeru-ban-architect-cathedrals-quake-shelters-beer-crates-paper",
                "apiUrl": "https://content.guardianapis.com/artanddesign/2026/feb/17/shigeru-ban-architect-cathedrals-quake-shelters-beer-crates-paper",
                "isHosted": false,
                "pillarId": "pillar/arts",
                "pillarName": "Arts"
            },
            {
                "id": "business/2026/feb/08/modern-milkman-to-collect-unwanted-electronics-and-toys-with-deliveries",
                "type": "article",
                "sectionId": "business",
                "sectionName": "Business",
                "webPublicationDate": "2026-02-08T07:00:24Z",
                "webTitle": "Modern Milkman to collect unwanted electronics and toys with deliveries",
                "webUrl": "https://www.theguardian.com/business/2026/feb/08/modern-milkman-to-collect-unwanted-electronics-and-toys-with-deliveries",
                "apiUrl": "https://content.guardianapis.com/business/2026/feb/08/modern-milkman-to-collect-unwanted-electronics-and-toys-with-deliveries",
                "isHosted": false,
                "pillarId": "pillar/news",
                "pillarName": "News"
            },
            {
                "id": "lifeandstyle/2026/feb/06/85-tips-for-keeping-your-clothes-in-top-condition",
                "type": "article",
                "sectionId": "lifeandstyle",
                "sectionName": "Life and style",
                "webPublicationDate": "2026-02-06T15:00:09Z",
                "webTitle": "A quick fix for broken zips – and 84 other tips to keep your clothes looking good",
                "webUrl": "https://www.theguardian.com/lifeandstyle/2026/feb/06/85-tips-for-keeping-your-clothes-in-top-condition",
                "apiUrl": "https://content.guardianapis.com/lifeandstyle/2026/feb/06/85-tips-for-keeping-your-clothes-in-top-condition",
                "isHosted": false,
                "pillarId": "pillar/lifestyle",
                "pillarName": "Lifestyle"
            },
            {
                "id": "environment/2026/jan/27/recycled-plastic-packaging-claims-misleading-say-experts",
                "type": "article",
                "sectionId": "environment",
                "sectionName": "Environment",
                "webPublicationDate": "2026-01-27T13:48:58Z",
                "webTitle": "Europe’s supermarket shelves packed with ‘misleading’ claims about recycled plastic packaging",
                "webUrl": "https://www.theguardian.com/environment/2026/jan/27/recycled-plastic-packaging-claims-misleading-say-experts",
                "apiUrl": "https://content.guardianapis.com/environment/2026/jan/27/recycled-plastic-packaging-claims-misleading-say-experts",
                "isHosted": false,
                "pillarId": "pillar/news",
                "pillarName": "News"
            },
            {
                "id": "uk-news/2025/dec/29/advertising-by-post-nobody-wants-this",
                "type": "article",
                "sectionId": "uk-news",
                "sectionName": "UK news",
                "webPublicationDate": "2025-12-29T17:44:42Z",
                "webTitle": "Advertising by post: nobody wants this | Letters",
                "webUrl": "https://www.theguardian.com/uk-news/2025/dec/29/advertising-by-post-nobody-wants-this",
                "apiUrl": "https://content.guardianapis.com/uk-news/2025/dec/29/advertising-by-post-nobody-wants-this",
                "isHosted": false,
                "pillarId": "pillar/news",
                "pillarName": "News"
            },
            {
                "id": "lifeandstyle/2025/dec/29/what-happened-next-maggots-rats-and-growing-despair-a-year-of-the-birmingham-bin-strike",
                "type": "article",
                "sectionId": "lifeandstyle",
                "sectionName": "Life and style",
                "webPublicationDate": "2025-12-29T05:00:29Z",
                "webTitle": "What happened next: Maggots, rats and growing despair – a year of the Birmingham bin strike",
                "webUrl": "https://www.theguardian.com/lifeandstyle/2025/dec/29/what-happened-next-maggots-rats-and-growing-despair-a-year-of-the-birmingham-bin-strike",
                "apiUrl": "https://content.guardianapis.com/lifeandstyle/2025/dec/29/what-happened-next-maggots-rats-and-growing-despair-a-year-of-the-birmingham-bin-strike",
                "isHosted": false,
                "pillarId": "pillar/lifestyle",
                "pillarName": "Lifestyle"
            },
            {
                "id": "environment/2025/dec/23/down-to-earth-the-filter",
                "type": "article",
                "sectionId": "environment",
                "sectionName": "Environment",
                "webPublicationDate": "2025-12-26T13:00:10Z",
                "webTitle": "From gifts that last to sustainable swaps, how we’re encouraging more thoughtful spending",
                "webUrl": "https://www.theguardian.com/environment/2025/dec/23/down-to-earth-the-filter",
                "apiUrl": "https://content.guardianapis.com/environment/2025/dec/23/down-to-earth-the-filter",
                "isHosted": false,
                "pillarId": "pillar/news",
                "pillarName": "News"
            },
            {
                "id": "commentisfree/2025/dec/09/the-guardian-view-on-waste-the-festive-season-is-a-good-time-to-think-about-rubbish",
                "type": "article",
                "sectionId": "commentisfree",
                "sectionName": "Opinion",
                "webPublicationDate": "2025-12-09T18:49:27Z",
                "webTitle": "The Guardian view on waste: the festive season is a good time to think about rubbish | Editorial",
                "webUrl": "https://www.theguardian.com/commentisfree/2025/dec/09/the-guardian-view-on-waste-the-festive-season-is-a-good-time-to-think-about-rubbish",
                "apiUrl": "https://content.guardianapis.com/commentisfree/2025/dec/09/the-guardian-view-on-waste-the-festive-season-is-a-good-time-to-think-about-rubbish",
                "isHosted": false,
                "pillarId": "pillar/opinion",
                "pillarName": "Opinion"
            },
            {
                "id": "environment/2025/dec/09/uk-households-bin-christmas-lights-fast-tech-items",
                "type": "article",
                "sectionId": "environment",
                "sectionName": "Environment",
                "webPublicationDate": "2025-12-09T08:00:02Z",
                "webTitle": "UK households bin 168m Christmas lights and ‘fast tech’ items a year",
                "webUrl": "https://www.theguardian.com/environment/2025/dec/09/uk-households-bin-christmas-lights-fast-tech-items",
                "apiUrl": "https://content.guardianapis.com/environment/2025/dec/09/uk-households-bin-christmas-lights-fast-tech-items",
                "isHosted": false,
                "pillarId": "pillar/news",
                "pillarName": "News"
            }
        ]
    }
}